3972dc9744f6499f0f9b2dbf76696f2ae7ad8af9b23dde66d6af86c9dfb36986  LICENSE
3709c7e20c45af739383c134d8bdccc3ebcdb01a3c5de1bfd6b312d49f309378  Logo.jpg
3a440a8d374cd90db924c8b1fa07fa47a33ed2a5efe6a5477f11248b9f842767  README.md
26b2e7ca649fd6f2bcf73220bcb47474562639132cdb9b91650f5acb76983805  Arm/launcher.py
307120972fd21049ea90b8e1e8714a2e0ef83cff22d7a1ada2b4821fe9623bde  Arm/main_py2.py
0aa903e662034f8e15888839ebfd5422016f2af6b02d7d637b96f4413b2a39bc  Arm/main_py3.py
b9ef5d4343ac2388cbf4406a5f3412870363b624d1da087a9ddb905c2838e753  Arm/README.md
da75dbbd1473929217227c4665554a1159d75b21e76c9e6cfd3802a6ed11fd1e  Arm/requires.txt
e115e89e518245cd1c3000fbb5ac5e5dd3b71eb283fb3e91abed108bdf3c76ea  Arm/under-Tor.py
26b2e7ca649fd6f2bcf73220bcb47474562639132cdb9b91650f5acb76983805  Linux/launcher.py
307120972fd21049ea90b8e1e8714a2e0ef83cff22d7a1ada2b4821fe9623bde  Linux/main_py2.py
0aa903e662034f8e15888839ebfd5422016f2af6b02d7d637b96f4413b2a39bc  Linux/main_py3.py
097d079fa39547ac460bb6b0e46c5f1128c1c6929386ee9624fa8239789179f9  Linux/README.md
da75dbbd1473929217227c4665554a1159d75b21e76c9e6cfd3802a6ed11fd1e  Linux/requires.txt
e115e89e518245cd1c3000fbb5ac5e5dd3b71eb283fb3e91abed108bdf3c76ea  Linux/under-Tor.py
5a3158d25db48b4cf39c1aac47c503c5cb6c7c52ca73cbf0639f2d3f7db63e92  Windows/launcher.py
7bfda5a95b3488d715a0d046fd76cdb9c8756a8d06bddf9aef9cd23ebe137c5b  Windows/main_py2.py
709f911287bcb809ec1271a791cacd91fe6b029fc891232b91e7be9ff766824f  Windows/main_py3.py
e3b0c44298fc1c149afbf4c8996fb92427ae41e4649b934ca495991b7852b855  Windows/README.md
43f55b686ace8b8950227c4c1250cfc4fd7d75e8ba9e22680e3aaaf611f2e09a  Windows/requires.txt
6d58deb910a172d08076d1260d76c475fa418bd0c7d012d4b7800df00f864919  Arm/lib/functionsPyThree.py
49b0d2e998d189d90ce7ab75e1eea712cc2a7620dcdafc9a87ed162ae1f8537f  Arm/lib/functionsPyTwo.py
e3b0c44298fc1c149afbf4c8996fb92427ae41e4649b934ca495991b7852b855  Arm/tmp/NULL (OPTINAL)
cb73e57769561d08ca1366a75ab58021a4c0dcc92aba1521768094c7ed9e92b1  Linux/lib/functionsPyThree.py
c76a7c7ff600eb2a2f81327bcd23ed6d455f9779971d12130c960e92319202d6  Linux/lib/functionsPyTwo.py
e3b0c44298fc1c149afbf4c8996fb92427ae41e4649b934ca495991b7852b855  Linux/tmp/NULL (OPTINAL)
450759d3d006fb40b38945ef092f2383390120b64ffd4be76f556b491f77c68e  Windows/lib/functionsPyThree.py
e267ddc376b5bacbcdca26b3b7d39aaad8cb9c60ee81e8c6ce85ffb5d07d0ade  Windows/lib/functionsPyTwo.py
e3b0c44298fc1c149afbf4c8996fb92427ae41e4649b934ca495991b7852b855  Windows/tmp/NULL (OPTINAL)
2b90e9854f3d95ae7e54d73138022066fdf31aec4e2fb61745ba8a81ba4826a0  Arm/plugins/Updater/main2.py
c796fb988bffffdeaf1b18941586eedd465370b0896594a302e7b80b070d278b  Arm/plugins/Updater/main3.py
80559017ff71f2f75bc592547a22693635b0af1a1e304e4b2b82a9d7cf62433f  Arm/plugins/Updater/requires.txt
2dcd1d21a6491960e40cc0763bfce312e9fada2928d573a8631de702b360fc6c  Arm/plugins/Updater/Title.txt
9fd28642d3aca191e5c7fc2383cfd6fabb2aac8743f029dabb8989ac584e31bc  Arm/plugins/Updater/version.txt
867cd0a5429d6668f31e1feaac531f61fef7a785c71f8612288bf66b290b3474  Linux/lib/RunLibs/_asyncio.cpython-39-x86_64-linux-gnu.so
a5ecd436e3e222c451bcc2554fe5d747e03bf679cc1353f1860242d45837cae3  Linux/lib/RunLibs/base_library.zip
e915ca82cef6ad61668d9a6b259e0d6a9a99904fbd69e4b5283a2c154ddf1c40  Linux/lib/RunLibs/_bz2.cpython-39-x86_64-linux-gnu.so
a99fe671b0fa6e36a15e95a95cc7a051239c3f6c37cb4e6b5bc09d6318c8346e  Linux/lib/RunLibs/_codecs_cn.cpython-39-x86_64-linux-gnu.so
5cb5327de7b03574b1883311eb899611882bd81dc7b21f1677b2c80e82ead1b8  Linux/lib/RunLibs/_codecs_hk.cpython-39-x86_64-linux-gnu.so
9ef0166480e10ccef74a8a26314649d312e80ff1812a1094fa3597504884edc1  Linux/lib/RunLibs/_codecs_iso2022.cpython-39-x86_64-linux-gnu.so
25fe0cf9f3c0c467ce32e0201a6d4d90cedc331ad1b7340d7a40deb7e0ff0d7c  Linux/lib/RunLibs/_codecs_jp.cpython-39-x86_64-linux-gnu.so
19bddb0c809582927a956e32c9fcc5a1c50dc61fc84503f49631004bea15ad20  Linux/lib/RunLibs/_codecs_kr.cpython-39-x86_64-linux-gnu.so
fdb588b912c0fa4596cdebf741abae0b9437d68fdf4ecb16ed9d8f54098618fd  Linux/lib/RunLibs/_codecs_tw.cpython-39-x86_64-linux-gnu.so
1a24eac47569271c886d285a9221f396279516764275b8a04c3d4575c9b00e7e  Linux/lib/RunLibs/_contextvars.cpython-39-x86_64-linux-gnu.so
51b146613148973d7c61828ed00f1f25e18760bb47c81a4dfe7484d37581ae51  Linux/lib/RunLibs/_ctypes.cpython-39-x86_64-linux-gnu.so
c15924f5590179129dcc9fcc76a2b89df9464f12810be963d0ff5f7093eecc42  Linux/lib/RunLibs/_decimal.cpython-39-x86_64-linux-gnu.so
05b89fa161de53fe905073a252c9f85a87253f43c70a9ba34e632a72d00e9ac4  Linux/lib/RunLibs/libbz2.so.1.0
fa7586c0ae7c4e0b5cddd91a63ee9997b1012f846fb0894c42770cc4422dd1b8  Linux/lib/RunLibs/libcrypto.so.1.1
cac6e1f91f6d90f72c0d7f7b0469b8dfb89ac1a7734537455801f0b9a8976878  Linux/lib/RunLibs/libexpat.so.1
a881ebba7ccb3510d41e6b580e9507981e98c61aeb4a36fad295974c88715373  Linux/lib/RunLibs/libffi.so.7
37704325bcfd4419c8f936380fa12934d2285cdd9ebe1c5d022aa1ecb0f0a6ad  Linux/lib/RunLibs/liblzma.so.5
daad697f8387a1d75d7ef40767e7c2867d44ddbc850e1f37f33496d803673ac0  Linux/lib/RunLibs/libpython3.9.so.1.0
621a4557078fd5196498c4dd3598ce03b8bccd503e920d4f655343f4f4c2638b  Linux/lib/RunLibs/libreadline.so.8
f706b1872daa24ae200c48ca0f0baeab560d77babe5797b3fbf1d6122f7f220a  Linux/lib/RunLibs/libssl.so.1.1
5d70ef50b3502b7c817407aba0f2531aa658736e14876af0dbb241b8afe24f67  Linux/lib/RunLibs/libtinfo.so.6
9a5ff6ffc3dd61749a7d01aa7917a7a530d7be2f56e2fa32f9a41ff3fb18b94c  Linux/lib/RunLibs/libz.so.1
c5dc110f82a0b5b8dae2215e10a074cfcc1d6d51ca5b4828eef3e69da595e6b6  Linux/lib/RunLibs/_lzma.cpython-39-x86_64-linux-gnu.so
2c19e4d0a21d77f0a0e8e0f645a85c1574ef7f979b50758c9900af345933a2de  Linux/lib/RunLibs/mmap.cpython-39-x86_64-linux-gnu.so
0ba8b868228e91cb043df90d8bd5c8b986f85c9b951c1ba341e2306cb287e31a  Linux/lib/RunLibs/_multibytecodec.cpython-39-x86_64-linux-gnu.so
78f1f631c46281dfc5d1e1a29e2e847e1bc7260c376d2b28de0351009a6a46ca  Linux/lib/RunLibs/_multiprocessing.cpython-39-x86_64-linux-gnu.so
b16f33bf71eba1042862a318f6420fd52c3c9b2e9824ed8b5c6a08bd0157820b  Linux/lib/RunLibs/_opcode.cpython-39-x86_64-linux-gnu.so
d7d1a55a852191dfdd07a540031ef4194ffc14b8db9856f02ad25d487f70cbc5  Linux/lib/RunLibs/_posixshmem.cpython-39-x86_64-linux-gnu.so
f807bc78cf85e6966b015573f69d34f3adf390d54b15456b8060bb1dd14bc158  Linux/lib/RunLibs/_queue.cpython-39-x86_64-linux-gnu.so
1cbadcf0479e10deafc178fab2d596bbf0efbe81ec777d389510862fc6c45060  Linux/lib/RunLibs/readline.cpython-39-x86_64-linux-gnu.so
f9be5e6014311df7f28617dd256c493756bba0d1d7effc2401bf0f8a6a16b9e1  Linux/lib/RunLibs/resource.cpython-39-x86_64-linux-gnu.so
74bcc4ce62d8c774cd6617d1c064100522a7ae5682b0745429a51e2b2aae92df  Linux/lib/RunLibs/_ssl.cpython-39-x86_64-linux-gnu.so
77396a7dde0a1871a7afe7838a2cb9d67924c11381c6459e1f17a564c5ec25cc  Linux/lib/RunLibs/termios.cpython-39-x86_64-linux-gnu.so
867cd0a5429d6668f31e1feaac531f61fef7a785c71f8612288bf66b290b3474  Linux/plugins/Chatroom/_asyncio.cpython-39-x86_64-linux-gnu.so
a5ecd436e3e222c451bcc2554fe5d747e03bf679cc1353f1860242d45837cae3  Linux/plugins/Chatroom/base_library.zip
e915ca82cef6ad61668d9a6b259e0d6a9a99904fbd69e4b5283a2c154ddf1c40  Linux/plugins/Chatroom/_bz2.cpython-39-x86_64-linux-gnu.so
a99fe671b0fa6e36a15e95a95cc7a051239c3f6c37cb4e6b5bc09d6318c8346e  Linux/plugins/Chatroom/_codecs_cn.cpython-39-x86_64-linux-gnu.so
5cb5327de7b03574b1883311eb899611882bd81dc7b21f1677b2c80e82ead1b8  Linux/plugins/Chatroom/_codecs_hk.cpython-39-x86_64-linux-gnu.so
9ef0166480e10ccef74a8a26314649d312e80ff1812a1094fa3597504884edc1  Linux/plugins/Chatroom/_codecs_iso2022.cpython-39-x86_64-linux-gnu.so
25fe0cf9f3c0c467ce32e0201a6d4d90cedc331ad1b7340d7a40deb7e0ff0d7c  Linux/plugins/Chatroom/_codecs_jp.cpython-39-x86_64-linux-gnu.so
19bddb0c809582927a956e32c9fcc5a1c50dc61fc84503f49631004bea15ad20  Linux/plugins/Chatroom/_codecs_kr.cpython-39-x86_64-linux-gnu.so
fdb588b912c0fa4596cdebf741abae0b9437d68fdf4ecb16ed9d8f54098618fd  Linux/plugins/Chatroom/_codecs_tw.cpython-39-x86_64-linux-gnu.so
1a24eac47569271c886d285a9221f396279516764275b8a04c3d4575c9b00e7e  Linux/plugins/Chatroom/_contextvars.cpython-39-x86_64-linux-gnu.so
51b146613148973d7c61828ed00f1f25e18760bb47c81a4dfe7484d37581ae51  Linux/plugins/Chatroom/_ctypes.cpython-39-x86_64-linux-gnu.so
c15924f5590179129dcc9fcc76a2b89df9464f12810be963d0ff5f7093eecc42  Linux/plugins/Chatroom/_decimal.cpython-39-x86_64-linux-gnu.so
05b89fa161de53fe905073a252c9f85a87253f43c70a9ba34e632a72d00e9ac4  Linux/plugins/Chatroom/libbz2.so.1.0
fa7586c0ae7c4e0b5cddd91a63ee9997b1012f846fb0894c42770cc4422dd1b8  Linux/plugins/Chatroom/libcrypto.so.1.1
cac6e1f91f6d90f72c0d7f7b0469b8dfb89ac1a7734537455801f0b9a8976878  Linux/plugins/Chatroom/libexpat.so.1
a881ebba7ccb3510d41e6b580e9507981e98c61aeb4a36fad295974c88715373  Linux/plugins/Chatroom/libffi.so.7
37704325bcfd4419c8f936380fa12934d2285cdd9ebe1c5d022aa1ecb0f0a6ad  Linux/plugins/Chatroom/liblzma.so.5
daad697f8387a1d75d7ef40767e7c2867d44ddbc850e1f37f33496d803673ac0  Linux/plugins/Chatroom/libpython3.9.so.1.0
621a4557078fd5196498c4dd3598ce03b8bccd503e920d4f655343f4f4c2638b  Linux/plugins/Chatroom/libreadline.so.8
f706b1872daa24ae200c48ca0f0baeab560d77babe5797b3fbf1d6122f7f220a  Linux/plugins/Chatroom/libssl.so.1.1
5d70ef50b3502b7c817407aba0f2531aa658736e14876af0dbb241b8afe24f67  Linux/plugins/Chatroom/libtinfo.so.6
9a5ff6ffc3dd61749a7d01aa7917a7a530d7be2f56e2fa32f9a41ff3fb18b94c  Linux/plugins/Chatroom/libz.so.1
c5dc110f82a0b5b8dae2215e10a074cfcc1d6d51ca5b4828eef3e69da595e6b6  Linux/plugins/Chatroom/_lzma.cpython-39-x86_64-linux-gnu.so
6eb8f8960b9bfb771721334f1bd2b805e3aba48c9b4fe4e33248cba37c02ad50  Linux/plugins/Chatroom/main.py
2c19e4d0a21d77f0a0e8e0f645a85c1574ef7f979b50758c9900af345933a2de  Linux/plugins/Chatroom/mmap.cpython-39-x86_64-linux-gnu.so
0ba8b868228e91cb043df90d8bd5c8b986f85c9b951c1ba341e2306cb287e31a  Linux/plugins/Chatroom/_multibytecodec.cpython-39-x86_64-linux-gnu.so
78f1f631c46281dfc5d1e1a29e2e847e1bc7260c376d2b28de0351009a6a46ca  Linux/plugins/Chatroom/_multiprocessing.cpython-39-x86_64-linux-gnu.so
b16f33bf71eba1042862a318f6420fd52c3c9b2e9824ed8b5c6a08bd0157820b  Linux/plugins/Chatroom/_opcode.cpython-39-x86_64-linux-gnu.so
d7d1a55a852191dfdd07a540031ef4194ffc14b8db9856f02ad25d487f70cbc5  Linux/plugins/Chatroom/_posixshmem.cpython-39-x86_64-linux-gnu.so
f807bc78cf85e6966b015573f69d34f3adf390d54b15456b8060bb1dd14bc158  Linux/plugins/Chatroom/_queue.cpython-39-x86_64-linux-gnu.so
1cbadcf0479e10deafc178fab2d596bbf0efbe81ec777d389510862fc6c45060  Linux/plugins/Chatroom/readline.cpython-39-x86_64-linux-gnu.so
f9be5e6014311df7f28617dd256c493756bba0d1d7effc2401bf0f8a6a16b9e1  Linux/plugins/Chatroom/resource.cpython-39-x86_64-linux-gnu.so
74bcc4ce62d8c774cd6617d1c064100522a7ae5682b0745429a51e2b2aae92df  Linux/plugins/Chatroom/_ssl.cpython-39-x86_64-linux-gnu.so
77396a7dde0a1871a7afe7838a2cb9d67924c11381c6459e1f17a564c5ec25cc  Linux/plugins/Chatroom/termios.cpython-39-x86_64-linux-gnu.so
71db6dbfe39883108677f00b50a4ab4ede8a603fb5a0e2a4211e705330344c4a  Linux/plugins/Chatroom/Title.txt
92521fc3cbd964bdc9f584a991b89fddaa5754ed1cc96d6d42445338669c1305  Linux/plugins/Chatroom/version.txt
867cd0a5429d6668f31e1feaac531f61fef7a785c71f8612288bf66b290b3474  Linux/plugins/Connector-Talk/_asyncio.cpython-39-x86_64-linux-gnu.so
a5ecd436e3e222c451bcc2554fe5d747e03bf679cc1353f1860242d45837cae3  Linux/plugins/Connector-Talk/base_library.zip
e915ca82cef6ad61668d9a6b259e0d6a9a99904fbd69e4b5283a2c154ddf1c40  Linux/plugins/Connector-Talk/_bz2.cpython-39-x86_64-linux-gnu.so
a99fe671b0fa6e36a15e95a95cc7a051239c3f6c37cb4e6b5bc09d6318c8346e  Linux/plugins/Connector-Talk/_codecs_cn.cpython-39-x86_64-linux-gnu.so
5cb5327de7b03574b1883311eb899611882bd81dc7b21f1677b2c80e82ead1b8  Linux/plugins/Connector-Talk/_codecs_hk.cpython-39-x86_64-linux-gnu.so
9ef0166480e10ccef74a8a26314649d312e80ff1812a1094fa3597504884edc1  Linux/plugins/Connector-Talk/_codecs_iso2022.cpython-39-x86_64-linux-gnu.so
25fe0cf9f3c0c467ce32e0201a6d4d90cedc331ad1b7340d7a40deb7e0ff0d7c  Linux/plugins/Connector-Talk/_codecs_jp.cpython-39-x86_64-linux-gnu.so
19bddb0c809582927a956e32c9fcc5a1c50dc61fc84503f49631004bea15ad20  Linux/plugins/Connector-Talk/_codecs_kr.cpython-39-x86_64-linux-gnu.so
fdb588b912c0fa4596cdebf741abae0b9437d68fdf4ecb16ed9d8f54098618fd  Linux/plugins/Connector-Talk/_codecs_tw.cpython-39-x86_64-linux-gnu.so
1a24eac47569271c886d285a9221f396279516764275b8a04c3d4575c9b00e7e  Linux/plugins/Connector-Talk/_contextvars.cpython-39-x86_64-linux-gnu.so
51b146613148973d7c61828ed00f1f25e18760bb47c81a4dfe7484d37581ae51  Linux/plugins/Connector-Talk/_ctypes.cpython-39-x86_64-linux-gnu.so
c15924f5590179129dcc9fcc76a2b89df9464f12810be963d0ff5f7093eecc42  Linux/plugins/Connector-Talk/_decimal.cpython-39-x86_64-linux-gnu.so
05b89fa161de53fe905073a252c9f85a87253f43c70a9ba34e632a72d00e9ac4  Linux/plugins/Connector-Talk/libbz2.so.1.0
fa7586c0ae7c4e0b5cddd91a63ee9997b1012f846fb0894c42770cc4422dd1b8  Linux/plugins/Connector-Talk/libcrypto.so.1.1
cac6e1f91f6d90f72c0d7f7b0469b8dfb89ac1a7734537455801f0b9a8976878  Linux/plugins/Connector-Talk/libexpat.so.1
a881ebba7ccb3510d41e6b580e9507981e98c61aeb4a36fad295974c88715373  Linux/plugins/Connector-Talk/libffi.so.7
37704325bcfd4419c8f936380fa12934d2285cdd9ebe1c5d022aa1ecb0f0a6ad  Linux/plugins/Connector-Talk/liblzma.so.5
daad697f8387a1d75d7ef40767e7c2867d44ddbc850e1f37f33496d803673ac0  Linux/plugins/Connector-Talk/libpython3.9.so.1.0
621a4557078fd5196498c4dd3598ce03b8bccd503e920d4f655343f4f4c2638b  Linux/plugins/Connector-Talk/libreadline.so.8
f706b1872daa24ae200c48ca0f0baeab560d77babe5797b3fbf1d6122f7f220a  Linux/plugins/Connector-Talk/libssl.so.1.1
5d70ef50b3502b7c817407aba0f2531aa658736e14876af0dbb241b8afe24f67  Linux/plugins/Connector-Talk/libtinfo.so.6
9a5ff6ffc3dd61749a7d01aa7917a7a530d7be2f56e2fa32f9a41ff3fb18b94c  Linux/plugins/Connector-Talk/libz.so.1
c5dc110f82a0b5b8dae2215e10a074cfcc1d6d51ca5b4828eef3e69da595e6b6  Linux/plugins/Connector-Talk/_lzma.cpython-39-x86_64-linux-gnu.so
834133a022bc3407875cb3a7a88735ac308365627536cce3b0e9fe593388d580  Linux/plugins/Connector-Talk/main.py
2c19e4d0a21d77f0a0e8e0f645a85c1574ef7f979b50758c9900af345933a2de  Linux/plugins/Connector-Talk/mmap.cpython-39-x86_64-linux-gnu.so
0ba8b868228e91cb043df90d8bd5c8b986f85c9b951c1ba341e2306cb287e31a  Linux/plugins/Connector-Talk/_multibytecodec.cpython-39-x86_64-linux-gnu.so
78f1f631c46281dfc5d1e1a29e2e847e1bc7260c376d2b28de0351009a6a46ca  Linux/plugins/Connector-Talk/_multiprocessing.cpython-39-x86_64-linux-gnu.so
b16f33bf71eba1042862a318f6420fd52c3c9b2e9824ed8b5c6a08bd0157820b  Linux/plugins/Connector-Talk/_opcode.cpython-39-x86_64-linux-gnu.so
d7d1a55a852191dfdd07a540031ef4194ffc14b8db9856f02ad25d487f70cbc5  Linux/plugins/Connector-Talk/_posixshmem.cpython-39-x86_64-linux-gnu.so
f807bc78cf85e6966b015573f69d34f3adf390d54b15456b8060bb1dd14bc158  Linux/plugins/Connector-Talk/_queue.cpython-39-x86_64-linux-gnu.so
1cbadcf0479e10deafc178fab2d596bbf0efbe81ec777d389510862fc6c45060  Linux/plugins/Connector-Talk/readline.cpython-39-x86_64-linux-gnu.so
285cc3997a793f4a3e3b28192c5d58a9a38b556b2d5a02b298e4bc8a6cc14805  Linux/plugins/Connector-Talk/requires.txt
f9be5e6014311df7f28617dd256c493756bba0d1d7effc2401bf0f8a6a16b9e1  Linux/plugins/Connector-Talk/resource.cpython-39-x86_64-linux-gnu.so
74bcc4ce62d8c774cd6617d1c064100522a7ae5682b0745429a51e2b2aae92df  Linux/plugins/Connector-Talk/_ssl.cpython-39-x86_64-linux-gnu.so
77396a7dde0a1871a7afe7838a2cb9d67924c11381c6459e1f17a564c5ec25cc  Linux/plugins/Connector-Talk/termios.cpython-39-x86_64-linux-gnu.so
ad459a5fe5f44c890e78c9240a08f3c108cc49b3a087664e94c545bba2f3447a  Linux/plugins/Connector-Talk/Title.txt
44e161e4495cac2cf7858043e9e6418e9579f0ddcfae826f9a372622968ce066  Linux/plugins/Connector-Talk/version.txt
867cd0a5429d6668f31e1feaac531f61fef7a785c71f8612288bf66b290b3474  Linux/plugins/DDOSer/_asyncio.cpython-39-x86_64-linux-gnu.so
a5ecd436e3e222c451bcc2554fe5d747e03bf679cc1353f1860242d45837cae3  Linux/plugins/DDOSer/base_library.zip
e915ca82cef6ad61668d9a6b259e0d6a9a99904fbd69e4b5283a2c154ddf1c40  Linux/plugins/DDOSer/_bz2.cpython-39-x86_64-linux-gnu.so
a99fe671b0fa6e36a15e95a95cc7a051239c3f6c37cb4e6b5bc09d6318c8346e  Linux/plugins/DDOSer/_codecs_cn.cpython-39-x86_64-linux-gnu.so
5cb5327de7b03574b1883311eb899611882bd81dc7b21f1677b2c80e82ead1b8  Linux/plugins/DDOSer/_codecs_hk.cpython-39-x86_64-linux-gnu.so
9ef0166480e10ccef74a8a26314649d312e80ff1812a1094fa3597504884edc1  Linux/plugins/DDOSer/_codecs_iso2022.cpython-39-x86_64-linux-gnu.so
25fe0cf9f3c0c467ce32e0201a6d4d90cedc331ad1b7340d7a40deb7e0ff0d7c  Linux/plugins/DDOSer/_codecs_jp.cpython-39-x86_64-linux-gnu.so
19bddb0c809582927a956e32c9fcc5a1c50dc61fc84503f49631004bea15ad20  Linux/plugins/DDOSer/_codecs_kr.cpython-39-x86_64-linux-gnu.so
fdb588b912c0fa4596cdebf741abae0b9437d68fdf4ecb16ed9d8f54098618fd  Linux/plugins/DDOSer/_codecs_tw.cpython-39-x86_64-linux-gnu.so
1a24eac47569271c886d285a9221f396279516764275b8a04c3d4575c9b00e7e  Linux/plugins/DDOSer/_contextvars.cpython-39-x86_64-linux-gnu.so
51b146613148973d7c61828ed00f1f25e18760bb47c81a4dfe7484d37581ae51  Linux/plugins/DDOSer/_ctypes.cpython-39-x86_64-linux-gnu.so
c15924f5590179129dcc9fcc76a2b89df9464f12810be963d0ff5f7093eecc42  Linux/plugins/DDOSer/_decimal.cpython-39-x86_64-linux-gnu.so
05b89fa161de53fe905073a252c9f85a87253f43c70a9ba34e632a72d00e9ac4  Linux/plugins/DDOSer/libbz2.so.1.0
fa7586c0ae7c4e0b5cddd91a63ee9997b1012f846fb0894c42770cc4422dd1b8  Linux/plugins/DDOSer/libcrypto.so.1.1
cac6e1f91f6d90f72c0d7f7b0469b8dfb89ac1a7734537455801f0b9a8976878  Linux/plugins/DDOSer/libexpat.so.1
a881ebba7ccb3510d41e6b580e9507981e98c61aeb4a36fad295974c88715373  Linux/plugins/DDOSer/libffi.so.7
37704325bcfd4419c8f936380fa12934d2285cdd9ebe1c5d022aa1ecb0f0a6ad  Linux/plugins/DDOSer/liblzma.so.5
daad697f8387a1d75d7ef40767e7c2867d44ddbc850e1f37f33496d803673ac0  Linux/plugins/DDOSer/libpython3.9.so.1.0
621a4557078fd5196498c4dd3598ce03b8bccd503e920d4f655343f4f4c2638b  Linux/plugins/DDOSer/libreadline.so.8
f706b1872daa24ae200c48ca0f0baeab560d77babe5797b3fbf1d6122f7f220a  Linux/plugins/DDOSer/libssl.so.1.1
5d70ef50b3502b7c817407aba0f2531aa658736e14876af0dbb241b8afe24f67  Linux/plugins/DDOSer/libtinfo.so.6
9a5ff6ffc3dd61749a7d01aa7917a7a530d7be2f56e2fa32f9a41ff3fb18b94c  Linux/plugins/DDOSer/libz.so.1
c5dc110f82a0b5b8dae2215e10a074cfcc1d6d51ca5b4828eef3e69da595e6b6  Linux/plugins/DDOSer/_lzma.cpython-39-x86_64-linux-gnu.so
105230ed2aa949f727b7b0ad842f95625ce00bb98b9bfa55e61a455aaae79133  Linux/plugins/DDOSer/main.py
2c19e4d0a21d77f0a0e8e0f645a85c1574ef7f979b50758c9900af345933a2de  Linux/plugins/DDOSer/mmap.cpython-39-x86_64-linux-gnu.so
0ba8b868228e91cb043df90d8bd5c8b986f85c9b951c1ba341e2306cb287e31a  Linux/plugins/DDOSer/_multibytecodec.cpython-39-x86_64-linux-gnu.so
78f1f631c46281dfc5d1e1a29e2e847e1bc7260c376d2b28de0351009a6a46ca  Linux/plugins/DDOSer/_multiprocessing.cpython-39-x86_64-linux-gnu.so
b16f33bf71eba1042862a318f6420fd52c3c9b2e9824ed8b5c6a08bd0157820b  Linux/plugins/DDOSer/_opcode.cpython-39-x86_64-linux-gnu.so
d7d1a55a852191dfdd07a540031ef4194ffc14b8db9856f02ad25d487f70cbc5  Linux/plugins/DDOSer/_posixshmem.cpython-39-x86_64-linux-gnu.so
f807bc78cf85e6966b015573f69d34f3adf390d54b15456b8060bb1dd14bc158  Linux/plugins/DDOSer/_queue.cpython-39-x86_64-linux-gnu.so
1cbadcf0479e10deafc178fab2d596bbf0efbe81ec777d389510862fc6c45060  Linux/plugins/DDOSer/readline.cpython-39-x86_64-linux-gnu.so
f9be5e6014311df7f28617dd256c493756bba0d1d7effc2401bf0f8a6a16b9e1  Linux/plugins/DDOSer/resource.cpython-39-x86_64-linux-gnu.so
74bcc4ce62d8c774cd6617d1c064100522a7ae5682b0745429a51e2b2aae92df  Linux/plugins/DDOSer/_ssl.cpython-39-x86_64-linux-gnu.so
77396a7dde0a1871a7afe7838a2cb9d67924c11381c6459e1f17a564c5ec25cc  Linux/plugins/DDOSer/termios.cpython-39-x86_64-linux-gnu.so
cf5d7e4cde54adad3c6f3f490dc53fea7e49287b64dd97c3cc47f30a05e7ccb1  Linux/plugins/DDOSer/Title.txt
59854984853104df5c353e2f681a15fc7924742f9a2e468c29af248dce45ce03  Linux/plugins/DDOSer/version.txt
a33b8306f68ca04f3ead19e0a10e229c8896d6550ff0bd4ce9f586f441bd4f0e  Linux/plugins/Updater/main2.py
a4b9cd4b1ac986b7ae673295f85d6da3159680b3bdd169b1c4af321b48f033f5  Linux/plugins/Updater/main3.py
80559017ff71f2f75bc592547a22693635b0af1a1e304e4b2b82a9d7cf62433f  Linux/plugins/Updater/requires.txt
2dcd1d21a6491960e40cc0763bfce312e9fada2928d573a8631de702b360fc6c  Linux/plugins/Updater/Title.txt
9fd28642d3aca191e5c7fc2383cfd6fabb2aac8743f029dabb8989ac584e31bc  Linux/plugins/Updater/version.txt
867cd0a5429d6668f31e1feaac531f61fef7a785c71f8612288bf66b290b3474  Linux/plugins/WP-loginBruteForce/_asyncio.cpython-39-x86_64-linux-gnu.so
a5ecd436e3e222c451bcc2554fe5d747e03bf679cc1353f1860242d45837cae3  Linux/plugins/WP-loginBruteForce/base_library.zip
e915ca82cef6ad61668d9a6b259e0d6a9a99904fbd69e4b5283a2c154ddf1c40  Linux/plugins/WP-loginBruteForce/_bz2.cpython-39-x86_64-linux-gnu.so
a99fe671b0fa6e36a15e95a95cc7a051239c3f6c37cb4e6b5bc09d6318c8346e  Linux/plugins/WP-loginBruteForce/_codecs_cn.cpython-39-x86_64-linux-gnu.so
5cb5327de7b03574b1883311eb899611882bd81dc7b21f1677b2c80e82ead1b8  Linux/plugins/WP-loginBruteForce/_codecs_hk.cpython-39-x86_64-linux-gnu.so
9ef0166480e10ccef74a8a26314649d312e80ff1812a1094fa3597504884edc1  Linux/plugins/WP-loginBruteForce/_codecs_iso2022.cpython-39-x86_64-linux-gnu.so
25fe0cf9f3c0c467ce32e0201a6d4d90cedc331ad1b7340d7a40deb7e0ff0d7c  Linux/plugins/WP-loginBruteForce/_codecs_jp.cpython-39-x86_64-linux-gnu.so
19bddb0c809582927a956e32c9fcc5a1c50dc61fc84503f49631004bea15ad20  Linux/plugins/WP-loginBruteForce/_codecs_kr.cpython-39-x86_64-linux-gnu.so
fdb588b912c0fa4596cdebf741abae0b9437d68fdf4ecb16ed9d8f54098618fd  Linux/plugins/WP-loginBruteForce/_codecs_tw.cpython-39-x86_64-linux-gnu.so
1a24eac47569271c886d285a9221f396279516764275b8a04c3d4575c9b00e7e  Linux/plugins/WP-loginBruteForce/_contextvars.cpython-39-x86_64-linux-gnu.so
51b146613148973d7c61828ed00f1f25e18760bb47c81a4dfe7484d37581ae51  Linux/plugins/WP-loginBruteForce/_ctypes.cpython-39-x86_64-linux-gnu.so
c15924f5590179129dcc9fcc76a2b89df9464f12810be963d0ff5f7093eecc42  Linux/plugins/WP-loginBruteForce/_decimal.cpython-39-x86_64-linux-gnu.so
05b89fa161de53fe905073a252c9f85a87253f43c70a9ba34e632a72d00e9ac4  Linux/plugins/WP-loginBruteForce/libbz2.so.1.0
fa7586c0ae7c4e0b5cddd91a63ee9997b1012f846fb0894c42770cc4422dd1b8  Linux/plugins/WP-loginBruteForce/libcrypto.so.1.1
cac6e1f91f6d90f72c0d7f7b0469b8dfb89ac1a7734537455801f0b9a8976878  Linux/plugins/WP-loginBruteForce/libexpat.so.1
a881ebba7ccb3510d41e6b580e9507981e98c61aeb4a36fad295974c88715373  Linux/plugins/WP-loginBruteForce/libffi.so.7
37704325bcfd4419c8f936380fa12934d2285cdd9ebe1c5d022aa1ecb0f0a6ad  Linux/plugins/WP-loginBruteForce/liblzma.so.5
daad697f8387a1d75d7ef40767e7c2867d44ddbc850e1f37f33496d803673ac0  Linux/plugins/WP-loginBruteForce/libpython3.9.so.1.0
621a4557078fd5196498c4dd3598ce03b8bccd503e920d4f655343f4f4c2638b  Linux/plugins/WP-loginBruteForce/libreadline.so.8
f706b1872daa24ae200c48ca0f0baeab560d77babe5797b3fbf1d6122f7f220a  Linux/plugins/WP-loginBruteForce/libssl.so.1.1
5d70ef50b3502b7c817407aba0f2531aa658736e14876af0dbb241b8afe24f67  Linux/plugins/WP-loginBruteForce/libtinfo.so.6
9a5ff6ffc3dd61749a7d01aa7917a7a530d7be2f56e2fa32f9a41ff3fb18b94c  Linux/plugins/WP-loginBruteForce/libz.so.1
c5dc110f82a0b5b8dae2215e10a074cfcc1d6d51ca5b4828eef3e69da595e6b6  Linux/plugins/WP-loginBruteForce/_lzma.cpython-39-x86_64-linux-gnu.so
5c2a80ff75731b1c762c4805643003b7683b1c5ad44d90525c450732b680dcd0  Linux/plugins/WP-loginBruteForce/main.py
2c19e4d0a21d77f0a0e8e0f645a85c1574ef7f979b50758c9900af345933a2de  Linux/plugins/WP-loginBruteForce/mmap.cpython-39-x86_64-linux-gnu.so
0ba8b868228e91cb043df90d8bd5c8b986f85c9b951c1ba341e2306cb287e31a  Linux/plugins/WP-loginBruteForce/_multibytecodec.cpython-39-x86_64-linux-gnu.so
78f1f631c46281dfc5d1e1a29e2e847e1bc7260c376d2b28de0351009a6a46ca  Linux/plugins/WP-loginBruteForce/_multiprocessing.cpython-39-x86_64-linux-gnu.so
b16f33bf71eba1042862a318f6420fd52c3c9b2e9824ed8b5c6a08bd0157820b  Linux/plugins/WP-loginBruteForce/_opcode.cpython-39-x86_64-linux-gnu.so
d7d1a55a852191dfdd07a540031ef4194ffc14b8db9856f02ad25d487f70cbc5  Linux/plugins/WP-loginBruteForce/_posixshmem.cpython-39-x86_64-linux-gnu.so
f807bc78cf85e6966b015573f69d34f3adf390d54b15456b8060bb1dd14bc158  Linux/plugins/WP-loginBruteForce/_queue.cpython-39-x86_64-linux-gnu.so
1cbadcf0479e10deafc178fab2d596bbf0efbe81ec777d389510862fc6c45060  Linux/plugins/WP-loginBruteForce/readline.cpython-39-x86_64-linux-gnu.so
f9be5e6014311df7f28617dd256c493756bba0d1d7effc2401bf0f8a6a16b9e1  Linux/plugins/WP-loginBruteForce/resource.cpython-39-x86_64-linux-gnu.so
74bcc4ce62d8c774cd6617d1c064100522a7ae5682b0745429a51e2b2aae92df  Linux/plugins/WP-loginBruteForce/_ssl.cpython-39-x86_64-linux-gnu.so
77396a7dde0a1871a7afe7838a2cb9d67924c11381c6459e1f17a564c5ec25cc  Linux/plugins/WP-loginBruteForce/termios.cpython-39-x86_64-linux-gnu.so
32259504c02cf003992e5bf3593db2f775ac5b092286ef6a3219e6d1cc659245  Linux/plugins/WP-loginBruteForce/Title.txt
92521fc3cbd964bdc9f584a991b89fddaa5754ed1cc96d6d42445338669c1305  Linux/plugins/WP-loginBruteForce/version.txt
867cd0a5429d6668f31e1feaac531f61fef7a785c71f8612288bf66b290b3474  Linux/plugins/WP-UserFinder/_asyncio.cpython-39-x86_64-linux-gnu.so
a5ecd436e3e222c451bcc2554fe5d747e03bf679cc1353f1860242d45837cae3  Linux/plugins/WP-UserFinder/base_library.zip
e915ca82cef6ad61668d9a6b259e0d6a9a99904fbd69e4b5283a2c154ddf1c40  Linux/plugins/WP-UserFinder/_bz2.cpython-39-x86_64-linux-gnu.so
a99fe671b0fa6e36a15e95a95cc7a051239c3f6c37cb4e6b5bc09d6318c8346e  Linux/plugins/WP-UserFinder/_codecs_cn.cpython-39-x86_64-linux-gnu.so
5cb5327de7b03574b1883311eb899611882bd81dc7b21f1677b2c80e82ead1b8  Linux/plugins/WP-UserFinder/_codecs_hk.cpython-39-x86_64-linux-gnu.so
9ef0166480e10ccef74a8a26314649d312e80ff1812a1094fa3597504884edc1  Linux/plugins/WP-UserFinder/_codecs_iso2022.cpython-39-x86_64-linux-gnu.so
25fe0cf9f3c0c467ce32e0201a6d4d90cedc331ad1b7340d7a40deb7e0ff0d7c  Linux/plugins/WP-UserFinder/_codecs_jp.cpython-39-x86_64-linux-gnu.so
19bddb0c809582927a956e32c9fcc5a1c50dc61fc84503f49631004bea15ad20  Linux/plugins/WP-UserFinder/_codecs_kr.cpython-39-x86_64-linux-gnu.so
fdb588b912c0fa4596cdebf741abae0b9437d68fdf4ecb16ed9d8f54098618fd  Linux/plugins/WP-UserFinder/_codecs_tw.cpython-39-x86_64-linux-gnu.so
1a24eac47569271c886d285a9221f396279516764275b8a04c3d4575c9b00e7e  Linux/plugins/WP-UserFinder/_contextvars.cpython-39-x86_64-linux-gnu.so
51b146613148973d7c61828ed00f1f25e18760bb47c81a4dfe7484d37581ae51  Linux/plugins/WP-UserFinder/_ctypes.cpython-39-x86_64-linux-gnu.so
c15924f5590179129dcc9fcc76a2b89df9464f12810be963d0ff5f7093eecc42  Linux/plugins/WP-UserFinder/_decimal.cpython-39-x86_64-linux-gnu.so
05b89fa161de53fe905073a252c9f85a87253f43c70a9ba34e632a72d00e9ac4  Linux/plugins/WP-UserFinder/libbz2.so.1.0
fa7586c0ae7c4e0b5cddd91a63ee9997b1012f846fb0894c42770cc4422dd1b8  Linux/plugins/WP-UserFinder/libcrypto.so.1.1
cac6e1f91f6d90f72c0d7f7b0469b8dfb89ac1a7734537455801f0b9a8976878  Linux/plugins/WP-UserFinder/libexpat.so.1
a881ebba7ccb3510d41e6b580e9507981e98c61aeb4a36fad295974c88715373  Linux/plugins/WP-UserFinder/libffi.so.7
37704325bcfd4419c8f936380fa12934d2285cdd9ebe1c5d022aa1ecb0f0a6ad  Linux/plugins/WP-UserFinder/liblzma.so.5
daad697f8387a1d75d7ef40767e7c2867d44ddbc850e1f37f33496d803673ac0  Linux/plugins/WP-UserFinder/libpython3.9.so.1.0
621a4557078fd5196498c4dd3598ce03b8bccd503e920d4f655343f4f4c2638b  Linux/plugins/WP-UserFinder/libreadline.so.8
f706b1872daa24ae200c48ca0f0baeab560d77babe5797b3fbf1d6122f7f220a  Linux/plugins/WP-UserFinder/libssl.so.1.1
5d70ef50b3502b7c817407aba0f2531aa658736e14876af0dbb241b8afe24f67  Linux/plugins/WP-UserFinder/libtinfo.so.6
9a5ff6ffc3dd61749a7d01aa7917a7a530d7be2f56e2fa32f9a41ff3fb18b94c  Linux/plugins/WP-UserFinder/libz.so.1
c5dc110f82a0b5b8dae2215e10a074cfcc1d6d51ca5b4828eef3e69da595e6b6  Linux/plugins/WP-UserFinder/_lzma.cpython-39-x86_64-linux-gnu.so
30b7200ee8d93a6025368e2e674d3a8d34307c8e5ad4e1fb62b151208d296018  Linux/plugins/WP-UserFinder/main.py
2c19e4d0a21d77f0a0e8e0f645a85c1574ef7f979b50758c9900af345933a2de  Linux/plugins/WP-UserFinder/mmap.cpython-39-x86_64-linux-gnu.so
0ba8b868228e91cb043df90d8bd5c8b986f85c9b951c1ba341e2306cb287e31a  Linux/plugins/WP-UserFinder/_multibytecodec.cpython-39-x86_64-linux-gnu.so
78f1f631c46281dfc5d1e1a29e2e847e1bc7260c376d2b28de0351009a6a46ca  Linux/plugins/WP-UserFinder/_multiprocessing.cpython-39-x86_64-linux-gnu.so
b16f33bf71eba1042862a318f6420fd52c3c9b2e9824ed8b5c6a08bd0157820b  Linux/plugins/WP-UserFinder/_opcode.cpython-39-x86_64-linux-gnu.so
d7d1a55a852191dfdd07a540031ef4194ffc14b8db9856f02ad25d487f70cbc5  Linux/plugins/WP-UserFinder/_posixshmem.cpython-39-x86_64-linux-gnu.so
f807bc78cf85e6966b015573f69d34f3adf390d54b15456b8060bb1dd14bc158  Linux/plugins/WP-UserFinder/_queue.cpython-39-x86_64-linux-gnu.so
1cbadcf0479e10deafc178fab2d596bbf0efbe81ec777d389510862fc6c45060  Linux/plugins/WP-UserFinder/readline.cpython-39-x86_64-linux-gnu.so
f9be5e6014311df7f28617dd256c493756bba0d1d7effc2401bf0f8a6a16b9e1  Linux/plugins/WP-UserFinder/resource.cpython-39-x86_64-linux-gnu.so
74bcc4ce62d8c774cd6617d1c064100522a7ae5682b0745429a51e2b2aae92df  Linux/plugins/WP-UserFinder/_ssl.cpython-39-x86_64-linux-gnu.so
77396a7dde0a1871a7afe7838a2cb9d67924c11381c6459e1f17a564c5ec25cc  Linux/plugins/WP-UserFinder/termios.cpython-39-x86_64-linux-gnu.so
387b430f6af97564cc795b00803139dec1bff05f9f225aa5fc303a6a6f9820e0  Linux/plugins/WP-UserFinder/Title.txt
9fd28642d3aca191e5c7fc2383cfd6fabb2aac8743f029dabb8989ac584e31bc  Linux/plugins/WP-UserFinder/version.txt
f43f73dffd108660ce349e8fa8b905cd7d0940575536165c2fdeae66a801c606  Windows/plugins/Updater/main2.py
c6c06b3deb521c2ab81c4fd0bdd2237688c195431641f14e988da75b3094ed83  Windows/plugins/Updater/main3.py
80559017ff71f2f75bc592547a22693635b0af1a1e304e4b2b82a9d7cf62433f  Windows/plugins/Updater/requires.txt
2dcd1d21a6491960e40cc0763bfce312e9fada2928d573a8631de702b360fc6c  Windows/plugins/Updater/Title.txt
9fd28642d3aca191e5c7fc2383cfd6fabb2aac8743f029dabb8989ac584e31bc  Windows/plugins/Updater/version.txt
6d81bc6e3cf7fe0ab75ee290a055a09ab8cb7fc98a096544d6df9aad1aa46ff2  Linux/lib/RunLibs/include/python3.9/pyconfig.h
6d81bc6e3cf7fe0ab75ee290a055a09ab8cb7fc98a096544d6df9aad1aa46ff2  Linux/plugins/Chatroom/include/python3.9/pyconfig.h
6d81bc6e3cf7fe0ab75ee290a055a09ab8cb7fc98a096544d6df9aad1aa46ff2  Linux/plugins/Connector-Talk/include/python3.9/pyconfig.h
6d81bc6e3cf7fe0ab75ee290a055a09ab8cb7fc98a096544d6df9aad1aa46ff2  Linux/plugins/DDOSer/include/python3.9/pyconfig.h
6d81bc6e3cf7fe0ab75ee290a055a09ab8cb7fc98a096544d6df9aad1aa46ff2  Linux/plugins/WP-loginBruteForce/include/python3.9/pyconfig.h
6d81bc6e3cf7fe0ab75ee290a055a09ab8cb7fc98a096544d6df9aad1aa46ff2  Linux/plugins/WP-UserFinder/include/python3.9/pyconfig.h
7930bce65351b3dd6177e8f695e66bf75e87b645e2cbeafe6c61c9100c32f79a  Linux/lib/RunLibs/lib/python3.9/config-3.9-x86_64-linux-gnu/Makefile
7930bce65351b3dd6177e8f695e66bf75e87b645e2cbeafe6c61c9100c32f79a  Linux/plugins/Chatroom/lib/python3.9/config-3.9-x86_64-linux-gnu/Makefile
7930bce65351b3dd6177e8f695e66bf75e87b645e2cbeafe6c61c9100c32f79a  Linux/plugins/Connector-Talk/lib/python3.9/config-3.9-x86_64-linux-gnu/Makefile
7930bce65351b3dd6177e8f695e66bf75e87b645e2cbeafe6c61c9100c32f79a  Linux/plugins/DDOSer/lib/python3.9/config-3.9-x86_64-linux-gnu/Makefile
7930bce65351b3dd6177e8f695e66bf75e87b645e2cbeafe6c61c9100c32f79a  Linux/plugins/WP-loginBruteForce/lib/python3.9/config-3.9-x86_64-linux-gnu/Makefile
7930bce65351b3dd6177e8f695e66bf75e87b645e2cbeafe6c61c9100c32f79a  Linux/plugins/WP-UserFinder/lib/python3.9/config-3.9-x86_64-linux-gnu/Makefile
